{
  "project_info": {
    "project_number": "561442845882",
    "firebase_url": "https://farahy-eg-7ba33.firebaseio.com",
    "project_id": "farahy-eg-7ba33",
    "storage_bucket": "farahy-eg-7ba33.appspot.com"
  },
  "client": [
    {
      "client_info": {
        "mobilesdk_app_id": "1:561442845882:android:2e96f11fc69c2c99",
        "android_client_info": {
          "package_name": "com.farahyeg.shamsit"
        }
      },
      "oauth_client": [
        {
          "client_id": "561442845882-vmpquk0lee132ttnbo8l6tbl9lso8vhv.apps.googleusercontent.com",
          "client_type": 3
        }
      ],
      "api_key": [
        {
          "current_key": "AIzaSyBfnD28rYJim_65Cx16W6KxXppL56PQt_4"
        }
      ],
      "services": {
        "analytics_service": {
          "status": 1
        },
        "appinvite_service": {
          "status": 1,
          "other_platform_oauth_client": []
        },
        "ads_service": {
          "status": 2
        }
      }
    },
    {
      "client_info": {
        "mobilesdk_app_id": "1:561442845882:android:c53f240902de7778",
        "android_client_info": {
          "package_name": "com.shamsit.farahy"
        }
      },
      "oauth_client": [
        {
          "client_id": "561442845882-vmpquk0lee132ttnbo8l6tbl9lso8vhv.apps.googleusercontent.com",
          "client_type": 3
        }
      ],
      "api_key": [
        {
          "current_key": "AIzaSyBfnD28rYJim_65Cx16W6KxXppL56PQt_4"
        }
      ],
      "services": {
        "analytics_service": {
          "status": 1
        },
        "appinvite_service": {
          "status": 1,
          "other_platform_oauth_client": []
        },
        "ads_service": {
          "status": 2
        }
      }
    }
  ],
  "configuration_version": "1"
}